{
"all-planets": {
  "count": 60,
  "next": "http://localhost:4200/api/planets/?page=2",
  "previous": null,
  "results": [
    {
      "name": "Tatooine",
      "rotation_period": "23",
      "orbital_period": "304",
      "diameter": "10465",
      "climate": "arid",
      "gravity": "1 standard",
      "terrain": "desert",
      "surface_water": "1",
      "population": "200000",
      "residents": [
        "http://localhost:4200/api/people/1/",
        "http://localhost:4200/api/people/2/",
        "http://localhost:4200/api/people/4/",
        "http://localhost:4200/api/people/6/",
        "http://localhost:4200/api/people/7/",
        "http://localhost:4200/api/people/8/",
        "http://localhost:4200/api/people/9/",
        "http://localhost:4200/api/people/11/",
        "http://localhost:4200/api/people/43/",
        "http://localhost:4200/api/people/62/"
      ],
      "films": [
        "http://localhost:4200/api/films/1/",
        "http://localhost:4200/api/films/3/",
        "http://localhost:4200/api/films/4/",
        "http://localhost:4200/api/films/5/",
        "http://localhost:4200/api/films/6/"
      ],
      "created": "2014-12-09T13:50:49.641000Z",
      "edited": "2014-12-20T20:58:18.411000Z",
      "url": "http://localhost:4200/api/planets/1/"
    },
    {
      "name": "Alderaan",
      "rotation_period": "24",
      "orbital_period": "364",
      "diameter": "12500",
      "climate": "temperate",
      "gravity": "1 standard",
      "terrain": "grasslands, mountains",
      "surface_water": "40",
      "population": "2000000000",
      "residents": [
        "http://localhost:4200/api/people/5/",
        "http://localhost:4200/api/people/68/",
        "http://localhost:4200/api/people/81/"
      ],
      "films": [
        "http://localhost:4200/api/films/1/",
        "http://localhost:4200/api/films/6/"
      ],
      "created": "2014-12-10T11:35:48.479000Z",
      "edited": "2014-12-20T20:58:18.420000Z",
      "url": "http://localhost:4200/api/planets/2/"
    },
    {
      "name": "Yavin IV",
      "rotation_period": "24",
      "orbital_period": "4818",
      "diameter": "10200",
      "climate": "temperate, tropical",
      "gravity": "1 standard",
      "terrain": "jungle, rainforests",
      "surface_water": "8",
      "population": "1000",
      "residents": [],
      "films": [
        "http://localhost:4200/api/films/1/"
      ],
      "created": "2014-12-10T11:37:19.144000Z",
      "edited": "2014-12-20T20:58:18.421000Z",
      "url": "http://localhost:4200/api/planets/3/"
    },
    {
      "name": "Hoth",
      "rotation_period": "23",
      "orbital_period": "549",
      "diameter": "7200",
      "climate": "frozen",
      "gravity": "1.1 standard",
      "terrain": "tundra, ice caves, mountain ranges",
      "surface_water": "100",
      "population": "unknown",
      "residents": [],
      "films": [
        "http://localhost:4200/api/films/2/"
      ],
      "created": "2014-12-10T11:39:13.934000Z",
      "edited": "2014-12-20T20:58:18.423000Z",
      "url": "http://localhost:4200/api/planets/4/"
    }
  ]
}, "planets": [ {
      "id": 1,
      "name": "Tatooine",
      "rotation_period": "23",
      "orbital_period": "304",
      "diameter": "10465",
      "climate": "arid",
      "gravity": "1 standard",
      "terrain": "desert",
      "surface_water": "1",
      "population": "200000",
      "residents": [
        "http://office:4200/api/people/1/",
        "http://office:4200/api/people/2/",
        "http://office:4200/api/people/4/",
        "http://office:4200/api/people/6/",
        "http://office:4200/api/people/7/",
        "http://office:4200/api/people/8/",
        "http://office:4200/api/people/9/",
        "http://office:4200/api/people/11/",
        "http://office:4200/api/people/43/",
        "http://office:4200/api/people/62/"
      ],
      "films": [
        "http://office:4200/api/films/1/",
        "http://office:4200/api/films/3/",
        "http://office:4200/api/films/4/",
        "http://office:4200/api/films/5/",
        "http://office:4200/api/films/6/"
      ],
      "created": "2014-12-09T13:50:49.641000Z",
      "edited": "2014-12-20T20:58:18.411000Z",
      "url": "http://office:4200/api/planets/1/"
    },
    {
      "id": 2,
      "name": "Alderaan",
      "rotation_period": "24",
      "orbital_period": "364",
      "diameter": "12500",
      "climate": "temperate",
      "gravity": "1 standard",
      "terrain": "grasslands, mountains",
      "surface_water": "40",
      "population": "2000000000",
      "residents": [
        "http://office:4200/api/people/5/",
        "http://office:4200/api/people/68/",
        "http://office:4200/api/people/81/"
      ],
      "films": [
        "http://office:4200/api/films/1/",
        "http://office:4200/api/films/6/"
      ],
      "created": "2014-12-10T11:35:48.479000Z",
      "edited": "2014-12-20T20:58:18.420000Z",
      "url": "http://office:4200/api/planets/2/"
    },
    {
     "id": 3,
      "name": "Yavin IV",
      "rotation_period": "24",
      "orbital_period": "4818",
      "diameter": "10200",
      "climate": "temperate, tropical",
      "gravity": "1 standard",
      "terrain": "jungle, rainforests",
      "surface_water": "8",
      "population": "1000",
      "residents": [],
      "films": [
        "http://office:4200/api/films/1/"
      ],
      "created": "2014-12-10T11:37:19.144000Z",
      "edited": "2014-12-20T20:58:18.421000Z",
      "url": "http://office:4200/api/planets/3/"
    },
    {
      "id": 4,
      "name": "Hoth",
      "rotation_period": "23",
      "orbital_period": "549",
      "diameter": "7200",
      "climate": "frozen",
      "gravity": "1.1 standard",
      "terrain": "tundra, ice caves, mountain ranges",
      "surface_water": "100",
      "population": "unknown",
      "residents": [],
      "films": [
        "http://office:4200/api/films/2/"
      ],
      "created": "2014-12-10T11:39:13.934000Z",
      "edited": "2014-12-20T20:58:18.423000Z",
      "url": "http://office:4200/api/planets/4/"
    }
  ]
}
